…
    ## Warning: The `x` argument of `as_tibble.matrix()` must have unique column names if `.name_repair` is omitted as of tibble 2.0.0.
    ## Using compatibility `.name_repair`.
    ## This warning is displayed once every 8 hours.
    ## Call `lifecycle::last_lifecycle_warnings()` to see where this warning was generated.

    ## Joining, by = "i"

``` r
data
```

    ## # A tibble: 300 × 28
    ##    times     i phi_i  gphi     Y    V2     V3    V4    V5     V6    V7      V8
    ##    <dbl> <int> <dbl> <dbl> <dbl> <dbl>  <dbl> <dbl> <dbl>  <dbl> <dbl>   <dbl>
    ##  1   0       1  16.7  8.35  8.40  1.26 -0.236 0.359  1.30 -0.119  1.47 -0.0704
    ##  2  22.2     1  16.7 11.8  11.8   1.26 -0.236 0.359  1.30 -0.119  1.47 -0.0704
    ##  3  44.4     1  16.7 14.3  14.3   1.26 -0.236 0.359  1.30 -0.119  1.47 -0.0704
    ##  4  66.7     1  16.7 15.6  15.6   1.26 -0.236 0.359  1.30 -0.119  1.47 -0.0704
    ##  5  88.9     1  16.7 16.2  16.1   1.26 -0.236 0.359  1.30 -0.119  1.47 -0.0704
    ##  6 111.      1  16.7 16.5  16.5   1.26 -0.236 0.359  1.30 -0.119  1.47 -0.0704
    ##  7 133.      1  16.7 16.6  16.7   1.26 -0.236 0.359  1.30 -0.119  1.47 -0.0704
    ##  8 156.      1  16.7 16.7  16.7   1.26 -0.236 0.359  1.30 -0.119  1.47 -0.0704
    ##  9 178.      1  16.7 16.7  16.7   1.26 -0.236 0.359  1.30 -0.119  1.47 -0.0704
    ## 10 200       1  16.7 16.7  16.7   1.26 -0.236 0.359  1.30 -0.119  1.47 -0.0704
    ## # … with 290 more rows, and 16 more variables: V9 <dbl>, V10 <dbl>, V11 <dbl>,
    ## #   phi2 <dbl>, phi3 <dbl>, alpha <dbl>, beta1 <int>, beta2 <int>, beta3 <int>,
    ## #   beta4 <int>, beta5 <int>, beta6 <int>, beta7 <int>, beta8 <int>,
    ## #   beta9 <int>, beta10 <int>
…
## Example 2: regression on the delay parameter, after reparametrisation

``` r
set.seed(0)
data = SimulateDataOneVariableParam_reparam(beta = c(0.3, 0.3, 0.15, 0, 0, 0, 0, 0, 0), psi2 = 0.25, psi3 = 0.15, sigma = 1.)
```

    ## Joining, by = "i"

``` r
data
```

    ## # A tibble: 300 × 28
    ##    times     i phi_i  gphi     Y    V2     V3    V4    V5     V6    V7      V8
    ##    <dbl> <int> <dbl> <dbl> <dbl> <dbl>  <dbl> <dbl> <dbl>  <dbl> <dbl>   <dbl>
    ##  1   0       1  1.39  1.34  1.22  1.26 -0.236 0.359  1.30 -0.119  1.47 -0.0704
    ##  2  22.2     1  1.39  2.56  4.03  1.26 -0.236 0.359  1.30 -0.119  1.47 -0.0704
    ##  3  44.4     1  1.39  4.52  5.20  1.26 -0.236 0.359  1.30 -0.119  1.47 -0.0704
    ##  4  66.7     1  1.39  7.13  9.08  1.26 -0.236 0.359  1.30 -0.119  1.47 -0.0704
    ##  5  88.9     1  1.39  9.83  9.56  1.26 -0.236 0.359  1.30 -0.119  1.47 -0.0704
    ##  6 111.      1  1.39 12.0  10.7   1.26 -0.236 0.359  1.30 -0.119  1.47 -0.0704
    ##  7 133.      1  1.39 13.4  13.0   1.26 -0.236 0.359  1.30 -0.119  1.47 -0.0704
    ##  8 156.      1  1.39 14.2  14.3   1.26 -0.236 0.359  1.30 -0.119  1.47 -0.0704
    ##  9 178.      1  1.39 14.6  14.4   1.26 -0.236 0.359  1.30 -0.119  1.47 -0.0704
    ## 10 200       1  1.39 14.8  14.4   1.26 -0.236 0.359  1.30 -0.119  1.47 -0.0704
    ## # … with 290 more rows, and 16 more variables: V9 <dbl>, V10 <dbl>,
    ## #   beta1 <dbl>, beta2 <dbl>, beta3 <dbl>, beta4 <dbl>, beta5 <dbl>,
    ## #   beta6 <dbl>, beta7 <dbl>, beta8 <dbl>, beta9 <dbl>, Lmax <dbl>, Tmax <dbl>,
    ## #   psi1 <dbl>, psi2 <dbl>, psi3 <dbl>
…
